{
  "prepare_queue": {
    "installed": [],
    "uninstalled": []
  },
  "config_munge": {
    "files": {}
  },
  "installed_plugins": {
    "cordova-plugin-console": {
      "PACKAGE_NAME": "com.ionicframework.goatfarm501850"
    },
    "cordova-plugin-device": {
      "PACKAGE_NAME": "com.ionicframework.goatfarm501850"
    },
    "cordova-plugin-splashscreen": {
      "PACKAGE_NAME": "com.ionicframework.goatfarm501850"
    },
    "cordova-plugin-statusbar": {
      "PACKAGE_NAME": "com.ionicframework.goatfarm501850"
    },
    "cordova-plugin-whitelist": {
      "PACKAGE_NAME": "com.ionicframework.goatfarm501850"
    }
  },
  "dependent_plugins": {
    "cordova-plugin-ionic-keyboard": {
      "PACKAGE_NAME": "com.ionicframework.goatfarm501850"
    },
    "cordova-plugin-ionic-webview": {
      "PACKAGE_NAME": "com.ionicframework.goatfarm501850"
    }
  }
}